[gd_scene load_steps=4 format=3 uid="uid://0346o0fdtjqw"]

[ext_resource type="Script" path="res://Scripts/plataforma_angosta.gd" id="1_svhmt"]
[ext_resource type="TileSet" uid="uid://duyequdyyrxdn" path="res://Scenes/Plataformas.tres" id="2_x2xim"]

[sub_resource type="RectangleShape2D" id="RectangleShape2D_3c06a"]
size = Vector2(31, 58)

[node name="Plataforma_angosta_Arriba_y_abajo" type="StaticBody2D"]
script = ExtResource("1_svhmt")

[node name="CollisionShape2D" type="CollisionShape2D" parent="."]
position = Vector2(0.5, -2)
shape = SubResource("RectangleShape2D_3c06a")

[node name="TileMap" type="TileMap" parent="."]
tile_set = ExtResource("2_x2xim")
format = 2
layer_0/tile_data = PackedInt32Array(-65537, 917504, 0, -1, 917504, 1, 65535, 917504, 0, 131071, 917504, 1, -131072, 983040, 0, -65536, 983040, 1, 0, 983040, 0, 65536, 983040, 1)

[node name="Timer" type="Timer" parent="."]
wait_time = 1.5

[connection signal="timeout" from="Timer" to="." method="_on_timer_timeout"]
